^C:\USERS\BYRON\DOCUMENTS\VISUAL STUDIO 2013\PROJECTS\SDLTUTORIAL_9\MADDIESDL\DEBUG\MAIN.OBJ
/OUT:"C:\USERS\BYRON\DOCUMENTS\VISUAL STUDIO 2013\PROJECTS\SDLTUTORIAL_9\DEBUG\MADDIESDL.EXE" /INCREMENTAL /NOLOGO SDL2.lib SDL2main.lib SDL2_image.lib SDL2_mixer.lib kernel32.lib user32.lib gdi32.lib winspool.lib comdlg32.lib advapi32.lib shell32.lib ole32.lib oleaut32.lib uuid.lib odbc32.lib odbccp32.lib /MANIFEST /MANIFESTUAC:"level='asInvoker' uiAccess='false'" /manifest:embed /DEBUG /PDB:"C:\USERS\BYRON\DOCUMENTS\VISUAL STUDIO 2013\PROJECTS\SDLTUTORIAL_9\DEBUG\MADDIESDL.PDB" /SUBSYSTEM:CONSOLE /TLBID:1 /DYNAMICBASE /NXCOMPAT /IMPLIB:"C:\USERS\BYRON\DOCUMENTS\VISUAL STUDIO 2013\PROJECTS\SDLTUTORIAL_9\DEBUG\MADDIESDL.LIB" /MACHINE:X86 DEBUG\MAIN.OBJ
^C:\USERS\BYRON\DOCUMENTS\VISUAL STUDIO 2013\PROJECTS\SPIKE 9 - SOUND\MADDIESDL\DEBUG\MAIN.OBJ
/OUT:"C:\USERS\BYRON\DOCUMENTS\VISUAL STUDIO 2013\PROJECTS\SPIKE 9 - SOUND\DEBUG\MADDIESDL.EXE" /INCREMENTAL /NOLOGO SDL2.lib SDL2main.lib SDL2_image.lib SDL2_mixer.lib kernel32.lib user32.lib gdi32.lib winspool.lib comdlg32.lib advapi32.lib shell32.lib ole32.lib oleaut32.lib uuid.lib odbc32.lib odbccp32.lib /MANIFEST /MANIFESTUAC:"level='asInvoker' uiAccess='false'" /manifest:embed /DEBUG /PDB:"C:\USERS\BYRON\DOCUMENTS\VISUAL STUDIO 2013\PROJECTS\SPIKE 9 - SOUND\DEBUG\MADDIESDL.PDB" /SUBSYSTEM:CONSOLE /TLBID:1 /DYNAMICBASE /NXCOMPAT /IMPLIB:"C:\USERS\BYRON\DOCUMENTS\VISUAL STUDIO 2013\PROJECTS\SPIKE 9 - SOUND\DEBUG\MADDIESDL.LIB" /MACHINE:X86 DEBUG\MAIN.OBJ
