^C:\USERS\BYRON\DOCUMENTS\VISUAL STUDIO 2013\PROJECTS\SDLTUTORIAL_9\MADDIESDL\DEBUG\MAIN.OBJ
C:\USERS\BYRON\DOCUMENTS\VISUAL STUDIO 2013\PROJECTS\SDLTUTORIAL_9\SDL2-2.0.3\LIB\X86\SDL2.LIB
C:\USERS\BYRON\DOCUMENTS\VISUAL STUDIO 2013\PROJECTS\SDLTUTORIAL_9\SDL2-2.0.3\LIB\X86\SDL2MAIN.LIB
C:\USERS\BYRON\DOCUMENTS\VISUAL STUDIO 2013\PROJECTS\SDLTUTORIAL_9\SDL2_IMAGE-2.0.0\LIB\X86\SDL2_IMAGE.LIB
C:\USERS\BYRON\DOCUMENTS\VISUAL STUDIO 2013\PROJECTS\SDLTUTORIAL_9\SDL2_MIXER-2.0.0\LIB\X86\SDL2_MIXER.LIB
C:\PROGRAM FILES (X86)\WINDOWS KITS\8.1\LIB\WINV6.3\UM\X86\KERNEL32.LIB
C:\PROGRAM FILES (X86)\WINDOWS KITS\8.1\LIB\WINV6.3\UM\X86\USER32.LIB
C:\PROGRAM FILES (X86)\WINDOWS KITS\8.1\LIB\WINV6.3\UM\X86\GDI32.LIB
C:\PROGRAM FILES (X86)\WINDOWS KITS\8.1\LIB\WINV6.3\UM\X86\WINSPOOL.LIB
C:\PROGRAM FILES (X86)\WINDOWS KITS\8.1\LIB\WINV6.3\UM\X86\COMDLG32.LIB
C:\PROGRAM FILES (X86)\WINDOWS KITS\8.1\LIB\WINV6.3\UM\X86\ADVAPI32.LIB
C:\PROGRAM FILES (X86)\WINDOWS KITS\8.1\LIB\WINV6.3\UM\X86\SHELL32.LIB
C:\PROGRAM FILES (X86)\WINDOWS KITS\8.1\LIB\WINV6.3\UM\X86\OLE32.LIB
C:\PROGRAM FILES (X86)\WINDOWS KITS\8.1\LIB\WINV6.3\UM\X86\OLEAUT32.LIB
C:\PROGRAM FILES (X86)\WINDOWS KITS\8.1\LIB\WINV6.3\UM\X86\UUID.LIB
C:\PROGRAM FILES (X86)\WINDOWS KITS\8.1\LIB\WINV6.3\UM\X86\ODBC32.LIB
C:\PROGRAM FILES (X86)\WINDOWS KITS\8.1\LIB\WINV6.3\UM\X86\ODBCCP32.LIB
C:\USERS\BYRON\DOCUMENTS\VISUAL STUDIO 2013\PROJECTS\SDLTUTORIAL_9\MADDIESDL\DEBUG\MAIN.OBJ
C:\WINDOWS\SYSTEM32\TZRES.DLL
C:\WINDOWS\GLOBALIZATION\SORTING\SORTDEFAULT.NLS
C:\PROGRAM FILES (X86)\MICROSOFT VISUAL STUDIO 12.0\VC\LIB\MSVCPRTD.LIB
C:\PROGRAM FILES (X86)\MICROSOFT VISUAL STUDIO 12.0\VC\LIB\MSVCRTD.LIB
C:\PROGRAM FILES (X86)\MICROSOFT VISUAL STUDIO 12.0\VC\LIB\OLDNAMES.LIB
C:\PROGRAM FILES (X86)\MICROSOFT VISUAL STUDIO 12.0\VC\LIB\MSVCRT.LIB
^C:\USERS\BYRON\DOCUMENTS\VISUAL STUDIO 2013\PROJECTS\SPIKE 9 - SOUND\MADDIESDL\DEBUG\MAIN.OBJ
C:\USERS\BYRON\DOCUMENTS\VISUAL STUDIO 2013\PROJECTS\SPIKE 9 - SOUND\SDL2-2.0.3\LIB\X86\SDL2.LIB
C:\USERS\BYRON\DOCUMENTS\VISUAL STUDIO 2013\PROJECTS\SPIKE 9 - SOUND\SDL2-2.0.3\LIB\X86\SDL2MAIN.LIB
C:\USERS\BYRON\DOCUMENTS\VISUAL STUDIO 2013\PROJECTS\SDLTUTORIAL_9\SDL2_IMAGE-2.0.0\LIB\X86\SDL2_IMAGE.LIB
C:\USERS\BYRON\DOCUMENTS\VISUAL STUDIO 2013\PROJECTS\SDLTUTORIAL_9\SDL2_MIXER-2.0.0\LIB\X86\SDL2_MIXER.LIB
C:\PROGRAM FILES (X86)\WINDOWS KITS\8.1\LIB\WINV6.3\UM\X86\KERNEL32.LIB
C:\PROGRAM FILES (X86)\WINDOWS KITS\8.1\LIB\WINV6.3\UM\X86\USER32.LIB
C:\PROGRAM FILES (X86)\WINDOWS KITS\8.1\LIB\WINV6.3\UM\X86\GDI32.LIB
C:\PROGRAM FILES (X86)\WINDOWS KITS\8.1\LIB\WINV6.3\UM\X86\WINSPOOL.LIB
C:\PROGRAM FILES (X86)\WINDOWS KITS\8.1\LIB\WINV6.3\UM\X86\COMDLG32.LIB
C:\PROGRAM FILES (X86)\WINDOWS KITS\8.1\LIB\WINV6.3\UM\X86\ADVAPI32.LIB
C:\PROGRAM FILES (X86)\WINDOWS KITS\8.1\LIB\WINV6.3\UM\X86\SHELL32.LIB
C:\PROGRAM FILES (X86)\WINDOWS KITS\8.1\LIB\WINV6.3\UM\X86\OLE32.LIB
C:\PROGRAM FILES (X86)\WINDOWS KITS\8.1\LIB\WINV6.3\UM\X86\OLEAUT32.LIB
C:\PROGRAM FILES (X86)\WINDOWS KITS\8.1\LIB\WINV6.3\UM\X86\UUID.LIB
C:\PROGRAM FILES (X86)\WINDOWS KITS\8.1\LIB\WINV6.3\UM\X86\ODBC32.LIB
C:\PROGRAM FILES (X86)\WINDOWS KITS\8.1\LIB\WINV6.3\UM\X86\ODBCCP32.LIB
C:\USERS\BYRON\DOCUMENTS\VISUAL STUDIO 2013\PROJECTS\SPIKE 9 - SOUND\MADDIESDL\DEBUG\MAIN.OBJ
C:\WINDOWS\SYSTEM32\TZRES.DLL
C:\WINDOWS\GLOBALIZATION\SORTING\SORTDEFAULT.NLS
C:\PROGRAM FILES (X86)\MICROSOFT VISUAL STUDIO 12.0\VC\LIB\MSVCPRTD.LIB
C:\PROGRAM FILES (X86)\MICROSOFT VISUAL STUDIO 12.0\VC\LIB\MSVCRTD.LIB
C:\PROGRAM FILES (X86)\MICROSOFT VISUAL STUDIO 12.0\VC\LIB\OLDNAMES.LIB
C:\PROGRAM FILES (X86)\MICROSOFT VISUAL STUDIO 12.0\VC\LIB\MSVCRT.LIB
